{
	"backend": {
		"ip": "localhost",
		"port": 5000
	},
	"database": {
		"host": "localhost",
		"name": "erecruit",
		"user": "root",
		"password": "password"
	},
	"authentication": {
		"key": "secret",
		"session": "1d"
	}
}
